%YAML 1.1
%TAG !u! tag:unity3d.com,2011:
--- !u!114 &11400000
MonoBehaviour:
  m_ObjectHideFlags: 0
  m_CorrespondingSourceObject: {fileID: 0}
  m_PrefabInstance: {fileID: 0}
  m_PrefabAsset: {fileID: 0}
  m_GameObject: {fileID: 0}
  m_Enabled: 1
  m_EditorHideFlags: 0
  m_Script: {fileID: 11500000, guid: 9c4b2a5b1fde11a478ffa53805ed0d37, type: 3}
  m_Name: DialogoNonna2
  m_EditorClassIdentifier: 
  dialogue:
  - Ottimo! Lo hai trovato!
  - "Ah... Non mi stancher\xF2 mai di vedere questi disegni cos\xEC colorati!"
  - "Non sono disegni! Cough... cough... Sono immagini, te l\u2019ho detto molte
    volte..."
  - E io ti ho sempre detto che questi strani pali marroni, con quella roba verde
    sopra, sono troppo inverosimili...
  - Intendi gli alberi...
  - "Dice anche che la legna cresceva da l\xEC! Cos\xEC, dal niente! Senza l\u2019uso
    di un laboratorio..."
  - "E guarda! Capisco che esistano dei pozzi d\u2019acqua grandi, ma qui mi sembra
    proprio esagerato..."
  - Intendi il mare...
  - "C\u2019\xE8 anche questa cosa in alto..."
  - " Il cielo! Yue, quello \xE8 il cielo!..."
  - "Sai, quand\u2019eri piccola guardavi sempre quell\u2019immagine affascinata,
    e parlavi sempre di andare a guardare le stelle. Pensavi fossero come i fari
    del soffitto del nostro settore..."
  - Nonna, ma tu credi davvero a tutte le cose di questo libro? Hai mai visto il
    cielo e le stelle?
  - Ci credo! Anche se sono nata nel s... Cough... in questo settore...
  - "Uhm... Dico solo che se il mondo esterno era davvero cos\xEC bello, perch\xE9
    \xE8 diventato inabitabile?"
  - Beh... ecco... Io...
  - ...
  - ...
  - "Pensi che torner\xE0 abitabile un giorno? Il mondo esterno, intendo."
  - Certo! Un giorno potremo uscire dalla cupola e guarderemo le stelle insieme,
    piccola mia! E vedrai che non si devono mai contraddire le parole di una nonna!
  - "Ahah. Va bene, nonna, allora faremo cos\xEC! Vado a posare il libro adesso."
  - Va bene, piccola... Cough... cough...
  - Va tutto bene?
  - "S\xEC s\xEC, non ti preoccupare! Va' a posare il libro."
  responses:
  - responseText: Continua
    dialogueObject: {fileID: 0}
  sprites:
  - {fileID: 21300000, guid: a72d5ce8ddde87c44a694e294bb5dd7f, type: 3}
  - {fileID: 21300000, guid: a8c36638ff269c8488a51c7bdec3ac06, type: 3}
  - {fileID: 21300000, guid: a72d5ce8ddde87c44a694e294bb5dd7f, type: 3}
  - {fileID: 21300000, guid: a8c36638ff269c8488a51c7bdec3ac06, type: 3}
  - {fileID: 21300000, guid: a72d5ce8ddde87c44a694e294bb5dd7f, type: 3}
  - {fileID: 21300000, guid: a8c36638ff269c8488a51c7bdec3ac06, type: 3}
  - {fileID: 21300000, guid: a8c36638ff269c8488a51c7bdec3ac06, type: 3}
  - {fileID: 21300000, guid: a72d5ce8ddde87c44a694e294bb5dd7f, type: 3}
  - {fileID: 21300000, guid: a8c36638ff269c8488a51c7bdec3ac06, type: 3}
  - {fileID: 21300000, guid: a72d5ce8ddde87c44a694e294bb5dd7f, type: 3}
  - {fileID: 21300000, guid: a72d5ce8ddde87c44a694e294bb5dd7f, type: 3}
  - {fileID: 21300000, guid: a8c36638ff269c8488a51c7bdec3ac06, type: 3}
  - {fileID: 21300000, guid: a72d5ce8ddde87c44a694e294bb5dd7f, type: 3}
  - {fileID: 21300000, guid: a8c36638ff269c8488a51c7bdec3ac06, type: 3}
  - {fileID: 21300000, guid: a72d5ce8ddde87c44a694e294bb5dd7f, type: 3}
  - {fileID: 21300000, guid: a72d5ce8ddde87c44a694e294bb5dd7f, type: 3}
  - {fileID: 21300000, guid: a8c36638ff269c8488a51c7bdec3ac06, type: 3}
  - {fileID: 21300000, guid: a8c36638ff269c8488a51c7bdec3ac06, type: 3}
  - {fileID: 21300000, guid: a72d5ce8ddde87c44a694e294bb5dd7f, type: 3}
  - {fileID: 21300000, guid: a8c36638ff269c8488a51c7bdec3ac06, type: 3}
  - {fileID: 21300000, guid: a72d5ce8ddde87c44a694e294bb5dd7f, type: 3}
  - {fileID: 21300000, guid: a8c36638ff269c8488a51c7bdec3ac06, type: 3}
  - {fileID: 21300000, guid: a72d5ce8ddde87c44a694e294bb5dd7f, type: 3}
  spritePositions: 0000000001000000000000000100000000000000010000000100000000000000010000000000000000000000010000000000000001000000000000000000000001000000010000000000000001000000000000000100000000000000
