%YAML 1.1
%TAG !u! tag:unity3d.com,2011:
--- !u!114 &11400000
MonoBehaviour:
  m_ObjectHideFlags: 0
  m_CorrespondingSourceObject: {fileID: 0}
  m_PrefabInstance: {fileID: 0}
  m_PrefabAsset: {fileID: 0}
  m_GameObject: {fileID: 0}
  m_Enabled: 1
  m_EditorHideFlags: 0
  m_Script: {fileID: 11500000, guid: 9c4b2a5b1fde11a478ffa53805ed0d37, type: 3}
  m_Name: FineDialogoDottore
  m_EditorClassIdentifier: 
  dialogue:
  - "Ti far\xF2 sapere dopo.. non preoccuparti."
  responses: []
  sprites:
  - {fileID: 21300000, guid: e8c263a5a4f20544ca7f24833d344d7a, type: 3}
  spritePositions: 01000000
