%YAML 1.1
%TAG !u! tag:unity3d.com,2011:
--- !u!114 &11400000
MonoBehaviour:
  m_ObjectHideFlags: 0
  m_CorrespondingSourceObject: {fileID: 0}
  m_PrefabInstance: {fileID: 0}
  m_PrefabAsset: {fileID: 0}
  m_GameObject: {fileID: 0}
  m_Enabled: 1
  m_EditorHideFlags: 0
  m_Script: {fileID: 11500000, guid: 9c4b2a5b1fde11a478ffa53805ed0d37, type: 3}
  m_Name: Dialogo Guardia 6
  m_EditorClassIdentifier: 
  dialogue:
  - Sai nessuno era mai riuscito a scapparmi!
  - "Ti uccider\xF2 qui e ora! Non mi importa se allerter\xF2 le guardie sparandoti! "
  - "Roviner\xF2 un po la tua carne! Ma non importa! Mi divertir\xF2 comunque a farti
    a pezzi!"
  responses:
  - responseText: Continua
    dialogueObject: {fileID: 0}
  sprites:
  - {fileID: 21300000, guid: 8ef57b1c740a50f4ab5f84574b6c252e, type: 3}
  - {fileID: 21300000, guid: 8ef57b1c740a50f4ab5f84574b6c252e, type: 3}
  - {fileID: 21300000, guid: 8ef57b1c740a50f4ab5f84574b6c252e, type: 3}
  spritePositions: 000000000000000000000000
