%YAML 1.1
%TAG !u! tag:unity3d.com,2011:
--- !u!114 &11400000
MonoBehaviour:
  m_ObjectHideFlags: 0
  m_CorrespondingSourceObject: {fileID: 0}
  m_PrefabInstance: {fileID: 0}
  m_PrefabAsset: {fileID: 0}
  m_GameObject: {fileID: 0}
  m_Enabled: 1
  m_EditorHideFlags: 0
  m_Script: {fileID: 11500000, guid: 9c4b2a5b1fde11a478ffa53805ed0d37, type: 3}
  m_Name: Dialogo Guardia 1
  m_EditorClassIdentifier: 
  dialogue:
  - "\u2026"
  - "Oh! Salve\u2026 Ragazzina?!"
  - Che ci fai da queste parti??
  - "Ehm.. Ecco.. Cercavo degli utensili da lavoro, per forzare\u2026 una porta\u2026
    sono rimasta chiusa fuori casa!\u2026"
  - ' Pfff!!! E li cerchi qua?! Ahahah'
  - "Che fortuna!... Cio\xE9\u2026 Sei fortunata ragazzina! Se vuoi posso portarti
    in uno dei magazzini, sono sicuro che l\xEC troverai ci\xF2 che ti serve!"
  - "\u2026"
  - "Beh.. Sarebbe fantastico, grazie! \n(Devo fare attenzione! \xC8 comunque una
    guardia.)"
  responses:
  - responseText: Continua
    dialogueObject: {fileID: 0}
  sprites:
  - {fileID: 21300000, guid: 8ef57b1c740a50f4ab5f84574b6c252e, type: 3}
  - {fileID: 21300000, guid: 8ef57b1c740a50f4ab5f84574b6c252e, type: 3}
  - {fileID: 21300000, guid: 8ef57b1c740a50f4ab5f84574b6c252e, type: 3}
  - {fileID: 21300000, guid: f11f8dc2cdfcb2744b5dcec07bcc65e6, type: 3}
  - {fileID: 21300000, guid: 8ef57b1c740a50f4ab5f84574b6c252e, type: 3}
  - {fileID: 21300000, guid: 8ef57b1c740a50f4ab5f84574b6c252e, type: 3}
  - {fileID: 21300000, guid: f11f8dc2cdfcb2744b5dcec07bcc65e6, type: 3}
  - {fileID: 21300000, guid: f11f8dc2cdfcb2744b5dcec07bcc65e6, type: 3}
  spritePositions: 0000000000000000000000000100000000000000000000000100000001000000
