%YAML 1.1
%TAG !u! tag:unity3d.com,2011:
--- !u!114 &11400000
MonoBehaviour:
  m_ObjectHideFlags: 0
  m_CorrespondingSourceObject: {fileID: 0}
  m_PrefabInstance: {fileID: 0}
  m_PrefabAsset: {fileID: 0}
  m_GameObject: {fileID: 0}
  m_Enabled: 1
  m_EditorHideFlags: 0
  m_Script: {fileID: 11500000, guid: 9c4b2a5b1fde11a478ffa53805ed0d37, type: 3}
  m_Name: FineDialogoDottore2
  m_EditorClassIdentifier: 
  dialogue:
  - "Al mio laboratorio troverai ci\xF2 che ti serve, buona fortuna Yue."
  responses: []
  sprites:
  - {fileID: 21300000, guid: c4cc8fdb5ec5e0a4c8a744ae61f22a6d, type: 3}
  spritePositions: 01000000
